2.9402315168233265e-05
2.9311286328703122e-05
2.926577190893806e-05
2.922025748917299e-05
2.9174743069407927e-05
2.9129228649642855e-05
2.9038199810112722e-05
2.899268539034766e-05
2.8901656550817524e-05
2.881062771128738e-05
2.8719598871757263e-05
2.8628570032227117e-05
2.8537541192696995e-05
2.849202677293192e-05
2.8400997933401793e-05
2.8309969093871654e-05
2.8264454674106588e-05
2.8218940254341522e-05
2.817342583457645e-05
2.8127911414811383e-05
2.8082396995046313e-05
2.803688257528125e-05
2.803688257528125e-05
2.799136815551618e-05
2.790033931598605e-05
2.7809310476455913e-05
2.771828163692578e-05
2.7672767217160718e-05
2.758173837763058e-05
2.7536223957865513e-05
2.7490709538100454e-05
2.7445195118335377e-05
2.7399680698570315e-05
2.735416627880525e-05
2.7308651859040186e-05
2.7217623019510047e-05
2.7126594179979914e-05
2.7081079760214848e-05
2.7035565340449782e-05
2.6944536500919646e-05
2.6853507661389514e-05
2.6762478821859372e-05
2.671696440209431e-05
2.662593556256418e-05
2.6534906723034038e-05
2.644387788350391e-05
2.635284904397377e-05
2.626182020444364e-05
2.6170791364913505e-05
2.612527694514844e-05
2.6079762525383373e-05
2.6034248105618304e-05
2.594321926608817e-05
2.5897704846323105e-05
2.585219042655804e-05
2.5806676006792973e-05
2.57611615870279e-05
2.5715647167262837e-05
2.5670132747497768e-05
2.5624618327732698e-05
2.553358948820257e-05
2.54880750684375e-05
2.544256064867243e-05
2.539704622890737e-05
2.5351531809142298e-05
2.5351531809142298e-05
2.530601738937723e-05
2.530601738937723e-05
2.5260502969612166e-05
2.5169474130082037e-05
2.512395971031696e-05
2.5032930870786835e-05
2.4987416451021762e-05
2.4941902031256703e-05
2.489638761149163e-05
2.4805358771961494e-05
2.4714329932431362e-05
2.4668815512666296e-05
2.457778667313616e-05
2.4532272253371094e-05
2.4486757833606028e-05
2.444124341384096e-05
2.439572899407589e-05
2.4350214574310826e-05
2.425918573478069e-05
2.421367131501562e-05
2.4122642475485496e-05
2.4077128055720423e-05
2.403161363595536e-05
2.3986099216190294e-05
2.3940584796425228e-05
2.3940584796425228e-05
2.3895070376660158e-05
2.384955595689509e-05
2.3804041537130026e-05
2.3758527117364956e-05
2.3713012697599894e-05
2.366749827783482e-05
2.3621983858069758e-05
2.3621983858069758e-05
